"VertexLitGeneric"
{
	"$baseTexture" "models/fallout_nv/clutter/brokenglasssheet01"
	"$bumpmap"     "models/fallout_nv/clutter/brokenglasssheet01_n"
    "$alphatest" "1"

	// "$phong" 1
	// "$phongboost" 0.4
	// "$phongexponent" 30
	// "$phongfresnelranges" "[0.6 1 1]"

	"$halflambert" "1"

    "$envmap" "env_cubemap"
    "$normalmapalphaenvmapmask" "1"
    "$envmaptint"  "0.9"
}