"VertexLitGeneric"
{
	"$baseTexture" "models/fallout_nv/vehicles/car05"
	"$bumpmap"     "models/fallout_nv/vehicles/car03_n"
	"$surfaceprop" 	"metal"
	"$alphatest" "1"
	
	"$phong" 1
	"$phongboost" 1.5
	"$phongexponent" 30
	"$phongfresnelranges" "[0.6 2 1]"
	"$phongalbedotint"	"1"
}