"LightmappedGeneric"
{
	"$basetexture" "fallout4/landscape/ground/CommonwealthDefault01_d"
	"$bumpmap" "fallout4/landscape/ground/CommonwealthDefault01_n"
	"$surfaceprop" "dirt"
	// "$blendmodulatetexture" "nature/blendtexture01"
	
	"%keywords" "fallout4"

	"$detailscale" "1"
	"$detailblendfactor" ".6"
	"$detailblendmode" "0"
}