"WorldVertexTransition"
{
	"$basetexture" "fallout4/landscape/ground/CommonwealthDefault01_d"
	"$bumpmap" "fallout4/landscape/ground/CommonwealthDefault01_n"
	"$surfaceprop" "dirt"
	
	"$basetexture2" "fallout4/landscape/ground/BlastedForestFloor01_d"
	// "$bumpmap2" "fallout4/landscape/ground/BlastedForestFloor01_n"
	"$surfaceprop2" "dirt"
	
	"$basetexturetransform2"  "center .5 .5 scale 0.2 0.2 rotate 0 translate 0 0"
	
	// "$blendmodulatetexture" "nature/blendtexture01"
	
	"%keywords" "fallout4"

	"$detail" "detail/rock_detail_01"
	"$detailscale" "1"
	"$detailblendfactor" ".6"
	"$detailblendmode" "0"
}