"VertexLitGeneric"
{
	"$baseTexture" "models/fallout_nv/dlcpitt/architecture/dlcpittbldlod"
	"$bumpmap"     "models/fallout_nv/dlcpitt/architecture/dlcpittbldlod_n"
	"$surfaceprop" 	"metal"
	"$alphatest" "1"
}