"VertexLitGeneric"
{
	"$baseTexture" "models/fallout_4/dlc03/landscape/trees/BeachPineDead01_d"
	"$bumpmap" 	"models/fallout_4/dlc03/landscape/trees/BeachPineDead01_n"
	"$phong"	"1"
	"$phongboost" 1
	"$phongexponent" 6
	"$phongtint" "[1 1 1]"
	"$phongfresnelranges" "[0.3 0.6 1]"
	"$halflambert" "1"
	"$nocull"	"1"
    "$alphatest"    "1"
	
}