"VertexLitGeneric"
{
	"$baseTexture" "models/fallout_nv/architecture/wasteland/alt_shack_texture"
	"$bumpmap"     "models/fallout_nv/architecture/wasteland/alt_shack_texture_n"
	"$surfaceprop" 	"wood"
	"$alphatest" "1"
	
	//"$normalmapalphaenvmapmask"	"1"
	
	"$phong" 1
	"$phongboost" 1
	"$phongexponent" 15
	"$phongfresnelranges" "[0.6 2 1]"
	"$phongalbedotint"	"1"
	
	//"$envmap"	"env_cubemap"
	//"$envmaptint"	0.4
}