"VertexLitGeneric"
{
	"$baseTexture" "models/fallout_nv/architecture/wasteland/concreteslab01"
	"$bumpmap"     "models/fallout_nv/architecture/wasteland/concreteslab01_n"
	// "$alphatest"	"1"
	"$surfaceprop" 	"wood"
}