"VertexLitGeneric"
{
	"$baseTexture" "models/fallout_nv/architecture/wasteland/wastelandext01"
	"$bumpmap"     "models/fallout_nv/architecture/wasteland/wastelandext01_n"
	"$alphatest"	"1"
	"$surfaceprop" 	"wood"
}