"VertexLitGeneric"
{
	"$baseTexture" "models/fallout_nv/architecture/wasteland/wastelandmarquee01int"
	"$bumpmap"     "models/fallout_nv/architecture/wasteland/wastelandmarquee01int_n"
	"$alphatest"	"1"
	"$surfaceprop" 	"carpet"
}