"VertexLitGeneric"
{
	"$baseTexture" "models/fallout_nv/architecture/wasteland/watertower01_lod"
	"$bumpmap"     "models/fallout_nv/architecture/wasteland/watertower01_lod_n"
	"$surfaceprop" 	"metal"
	"$alphatest"	"1"
}