"VertexLitGeneric"
{
	"$baseTexture" "models/fallout_nv/clutter/bathroom/toilet01"
	"$bumpmap"     "models/fallout_nv/clutter/bathroom/toilet01_n"
	"$surfaceprop" 	"concrete"

    "$translucent" "1"
    "$alpha"    "0.6"

	"$phong" 1
	
	"$normalmapalphaenvmapmask"	"1"
	"$envmap"	"env_cubemap"
	"$envmaptint"	0.1
}