"VertexLitGeneric"
{
	"$baseTexture" "models/fallout_nv/architecture/megaton/megatonatomicbomb01"
	"$bumpmap"     "models/fallout_nv/architecture/megaton/megatonatomicbomb01_n"
	"$surfaceprop" 	"metal"
	
	"$alphatest" "1"
	"$phong" 1
	"$phongboost" 1
	"$phongexponent" 30
	"$phongfresnelranges" "[0.6 2 1]"
	"$phongalbedotint"	"1"
}