"VertexLitGeneric"
{
	"$baseTexture" "models/fallout_nv/architecture/noso/nv_noso_ranchhouse02"
	"$bumpmap"     "models/fallout_nv/architecture/noso/nv_noso_ranchhouse02_n"
	"$surfaceprop" 	"concrete"
}