"VertexLitGeneric"
{
	"$baseTexture" "models/fallout/clutter/chests/steamertrunk/SteamerTrunk01"
	"$bumpmap" 	"models/fallout/clutter/chests/steamertrunk/SteamerTrunk01_n"
	"$phong" 1
	"$phongboost"	6
	"$phongfresnelranges"	"[0.05 0.5 1]"
}
