"VertexLitGeneric"
{
	"$baseTexture" "models/fallout_nv/landscape/NV_rocks/nv_rockformations_03_d"
	"$bumpmap"     "models/fallout_nv/landscape/NV_rocks/nv_rockformations_03_n"

	"$phong"	"1"
	"$phongboost" "1"
	"$phongexponent" "10"
	"$phongtint" "[1 1 1]"
	"$phongfresnelranges" "[0.7 0.3 1]"

	"$surfaceprop" 	"rock"
}