"LightmappedGeneric"
{
	"$basetexture" "models/fallout_nv/landscape/dlc04/dlc04roots"
	"$bumpmap" "models/fallout_nv/landscape/dlc04/dlc04roots_n"
	"$basetexture2" "models/fallout_nv/landscape/dlc04/dlc04dunesand"
	"$bumpmap2" "models/fallout_nv/landscape/dlc04/dlc04dunesand_n"
	"%tooltexture" "resurgence/rsrg_kneedeep/blends/roots_dunesand"
}
