"VertexlitGeneric"
{
	"$basetexture" "models/fallout_nv/clutter/tv02/tv02"
	"$bumpmap" 	  "models/fallout_nv/clutter/tv02/tv02_n"
	"$normalmapalphaenvmapmask"	"1"
    
	"$phong" 1
	"$phongtint"	"[1 1 1]"
	"$phongboost" 1
	"$phongexponent" 15
	"$phongfresnelranges" "[0.4 3 4]"
	
	"$envmap"	"env_cubemap"
	"$envmaptint"	0.1
}

