"VertexLitGeneric"
{
	"$baseTexture" "models/fallout_nv/architecture/mccarran/nv_mccarran-flagstone"
	"$bumpmap"     "models/fallout_nv/architecture/mccarran/nv_mccarran-flagstone_n"
	"$surfaceprop" 	"stone"
}