"WorldVertexTransition"
{

	"$BaseTexture" "customsandcrete\grassdead01"
	"$BumpMap" "customsandcrete\grassdead01_n"
	"$SurfaceProp" "grass"


	"$BaseTexture2" "customsandcrete\soilrocks01"
	"$BumpMap2" "customsandcrete\soilrocks01_n"
	"$SurfaceProp2" "dirt"

    "%keywords" "custom"
}