"WorldVertexTransition"
{
	"$BaseTexture" "customsandcrete\soilrocks01"
	"$BumpMap" "customsandcrete\soilrocks01_n"
	"$SurfaceProp" "dirt"
	
	"$BaseTexture2" "customsandcrete\rocksgreengrass01"
	"$BumpMap2" "customsandcrete\rocksgreengrass01_n"
	"$SurfaceProp2" "grass"
	
	"%detailtype" "ashland_detail_lush"

    "%keywords" "custom"
}