"LightMappedGeneric"
{

    "$basetexture" "models/fallout_nv/landscape/dirtwastes01"
    "$bumpmap"     "models/fallout_nv/landscape/dirtwastes01_n"
    "$bumpscale" .1
    "$surfaceprop" "dirt"

    "$vertexalpha" "1"
    "$vertexcolor" "1"

    "%keywords" "custom"
    
}