"VertexLitGeneric"
{
	"$baseTexture" "models/fallout/clutter/junk/turpentine/Turpentine"
	"$bumpmap" 	"models/fallout/clutter/junk/turpentine/Turpentine_n"
	"$envmap" "env_cubemap"
	"$envmaptint" "0.25"
}
