"VertexLitGeneric"
{
	"$baseTexture" "models/fallout_nv/nvdlc02/architecture/nvdlc02woodbridge02_lod"
	"$bumpmap"     "models/fallout_nv/nvdlc02/architecture/nvdlc02woodbridge02_lod_n"
	"$surfaceprop" 	"stone"
}