"VertexLitGeneric"
{
	"$baseTexture" "models/fallout_4/Props/jet_d"
	"$bumpmap" 	"models/fallout_4/Props/jet_n"
	
	"$surfaceprop" 	"glass"
	"$envmap" "env_cubemap"
	"$envmaptint" "[.6 .1 .1]"
	"$phong" 1
	"$phongboost" 5
	"$phongexponent" 20
	"$phongtint" "[1 0 0]"
	"$phongfresnelranges" "[1 0.2 1]"

	"$model" 1
}