"VertexLitGeneric"
{
	"$baseTexture" "models/fallout_4/Props/stimpack_d"
	"$bumpmap" 	"models/fallout_4/Props/stimpack_n"
	"$phong"	"1"
	"$phongboost" 7
	"$phongexponent" 20
	"$phongtint" "[1 1 1]"
	"$phongfresnelranges" "[0 0.3 1]"
}