"VertexLitGeneric"
{
	"$baseTexture" "models/fallout_nv/landscape/trees/nvclippedfrond"
	"$bumpmap"     "models/fallout_nv/landscape/trees/nvclippedfrond_n"
	"$surfaceprop" 	"Wood"
	"$alphatest" "1"
	"$nocull" "1"
}