"VertexLitGeneric"
{
	"$baseTexture" "models/fallout_nv/landscape/trees/nvficusleaves01"
	"$bumpmap"     "models/fallout_nv/landscape/trees/nvficusleaves01_n"
	"$surfaceprop" 	"Wood"
	"$alphatest" "1"
	"$nocull" "1"
}