"VertexLitGeneric"
{
	"$baseTexture" "models/fallout_nv/landscape/trees/nvgraybirchleaves01"
	"$bumpmap"     "models/fallout_nv/landscape/trees/nvgraybirchleaves01_n"
	"$surfaceprop" 	"Wood"
	"$alphatest" "1"
	"$nocull" "1"
}