"VertexLitGeneric"
{
	"$baseTexture" "models/fallout_nv/landscape/trees/nvsassafrasfrond"
	"$bumpmap"     "models/fallout_nv/landscape/trees/nvsassafrasfrond_n"
	"$surfaceprop" 	"Wood"
	"$alphatest" "1"
	"$nocull" "1"
}