"VertexLitGeneric"
{
	"$baseTexture" "models/fallout_nv/architecture/quarryjunction/dragline_bucket_d"
	"$bumpmap"     "models/fallout_nv/architecture/quarryjunction/dragline_bucket_n"
	"$surfaceprop" 	"metal"
}