
"VertexLitGeneric"
{
	"$baseTexture" "models/fallout_nv/dungeons/vault/controlpanelvault01"
	"$bumpmap"     "models/fallout_nv/dungeons/vault/controlpanelvault01_n"
	"$surfaceprop" 	"metal"
	"$model" 1

	"$selfillum" "1"
	"$selfillummask" "models/fallout_nv/dungeons/vault/controlpanelvault01_g"
	
	"$phong" 1
	"$phongboost" 3
	"$phongexponent" 45
	"$phongtint" "[0.2 0.7 1]"
	"$phongfresnelranges" "[0 0.3 0.8]"	
}