
"VertexLitGeneric"
{
	"$baseTexture" "models/fallout_nv/dungeons/vault/vgeardrill01a"
	"$bumpmap"     "models/fallout_nv/dungeons/vault/vgeardrill01a_n"
	"$surfaceprop" 	"metal"
	
	"$phong" 1
	"$phongboost" 2
	"$phongexponent" 45
	"$phongtint" "[1 1.2 1]"
	"$phongfresnelranges" "[0.3 3 0]"
	"$model" 1
	
}