
"VertexLitGeneric"
{
	"$baseTexture" "models/fallout_nv/dungeons/vault/vlight01"
	"$bumpmap"     "models/fallout_nv/dungeons/vault/vlight01_n"
	"$alphatest" "1"
	"$model" "1"
	
	"$phong" 1
	"$phongboost" 3
	"$phongexponent" 20
	"$phongtint" "[1 1 1]"
	"$phongfresnelranges" "[0 3 0]"
	"$model" 1
}