
"VertexLitGeneric"
{
	"$baseTexture" "models/fallout_nv/dungeons/vault/vquad02"
	"$bumpmap"     "models/fallout_nv/dungeons/vault/vquad02_n"
	
	"$alphatest" "1"

	"$phong" 1
	"$phongboost" 2
	"$phongexponent" 20
	"$phongtint" "[1 1 1]"
	"$phongfresnelranges" "[0.1 0.3 0.6]"
	
	// "$selfillum" 1
	// "$selfillummask" "models/fallout_nv/dungeons/vault/vquad02_g"	
}