"VertexLitGeneric"
{
	"$baseTexture" "models/fallout_4/architecture/warehouse/greenhouse/GreenhouseGlassPanes01broken_d"
	"$bumpmap" "models/fallout_4/architecture/warehouse/greenhouse/GreenhouseGlassPanes01_n"
	"$translucent"	"1"
	"$nocull"	"1"
	
	"$phong" 1
	"$phongboost" 1
	"$phongexponent" 3
	"$phongfresnelranges" "[1 .2 1]"

	"$model" 1
	"$envmap"	"env_cubemap"
	"$normalmapalphaenvmapmask"	"1"
}