"VertexLitGeneric"
{
	"$baseTexture" "models/fallout_nv/landscape/rockcanyonrubble01_nv_d"
	"$bumpmap"     "models/fallout_nv/landscape/rockcanyonrubble01_nv_n"
	
//	"$phong"	"1"
//	"$phongboost" "1"
//	"$phongexponent" "5"
//	"$phongtint" "[1 1 1]"
//	"$phongfresnelranges" "[0.4 0.3 1]"
	
	"$surfaceprop" 	"rock"
}