
"VertexLitGeneric"
{
	"$baseTexture" "models/fallout_nv/clutter/consoles/mainframe01"
	"$bumpmap"     "models/fallout_nv/clutter/consoles/mainframe01_n"
	
	"$model"	"1"
	
	"$phong" 1
	"$phongboost" 1
	"$phongexponent" 20
	"$phongtint" "[1 1 1]"
	"$phongfresnelranges" "[0 3 0]"
	"$model" 1
	
	Proxies
	{
		Sine
		{
			resultVar	$selfillumtint // The shader parameter to be manipulated
			sineperiod	3
			sinemin		4
			sinemax		5
		}
	}	
	
	"$selfillum" "1"
	"$selfillummask" "models/fallout_nv/clutter/consoles/mainframe01_g"
	
	"$surfaceprop" 	"metal"
}