"VertexLitGeneric"
{
	"$baseTexture" "models/fallout_4/landscape/plants/Bramble01_d"
	"$bumpmap" 	"models/fallout_4/landscape/plants/Bramble01_n"
	"$halflambert" "1"
	"$nocull"	"1"
	"$alphatest"	"1"
	"$allowalphatocoverage"	"1"
	"$alphatestreference" ".1" 
}