"VertexLitGeneric"
{
	"$baseTexture" "models/fallout_4/architecture/shacks/ShackPlanks01_d"
	"$bumpmap" "models/fallout_4/architecture/shacks/ShackPlanks01_n"
	
	"$phong" 1
	"$phongboost" 1
	"$phongexponent" 3
	"$phongfresnelranges" "[0.5 .2 1]"

	"$model" 1
	"$envmap"	"env_cubemap"
	"$normalmapalphaenvmapmask"	"1"
}