"VertexLitGeneric"
{
	"$baseTexture" "models/fallout_nv/architecture/urban/bridgedetail01"
	"$bumpmap"     "models/fallout_nv/architecture/urban/bridgedetail01_n"
	"$surfaceprop" 	"metal"
	"$alphatest" "1"
}