"VertexLitGeneric"
{
	"$baseTexture" "models/fallout_nv/architecture/urban/crackdecal03"
	"$bumpmap"     "models/fallout_nv/architecture/urban/crackdecal03_n"
	"$normalmap"     "models/fallout_nv/architecture/urban/crackdecal03_n"
	"$alphatest"	"1"
	
	"$surfaceprop" 	"stone"
	"$phong" 1
	"$phongboost" 1
	"$phongexponent" 10
	"$phongtint" "[0.5 0.4 0.3]"
	"$phongfresnelranges" "[0.5 .9 1]"
	"$envmap" "env_cubemap"
	"$normalmapalphaenvmapmask" "1"
	"$envmaptint" "[0.01 0.01 0.01]"
}