"VertexLitGeneric"
{
	"$baseTexture" "models/fallout_nv/architecture/paradisefalls/paradisefallsmetaltile02"
	"$bumpmap"     "models/fallout_nv/architecture/paradisefalls/paradisefallsmetaltile02_n"
}