"WorldVertexTransition"
{

	"$basetexture" "fallout/DryState_SoilSand01"
	"$bumpmap" "fallout/DryState_SoilSand01_n"
	"$surfaceprop" "Sand"
	
	"$basetexture2" "models/fallout_nv/landscape/dirtwasteland01"
	"$bumpmap2" "models/fallout_nv/landscape/dirtwasteland01_n"
	"$surfaceprop2" "dirt"
	
	"%keywords" "custom"
}