"WorldVertexTransition"
{

	"$basetexture" "models/fallout_nv/landscape/dirtpathwasteland01_lod"
	"$surfaceprop" "sand"
	
	
	"$basetexture2" "models/fallout_nv/dungeons/caves/cavesandyfloor01_lod"
	"$surfaceprop2" "dirt"
	
	"%keywords" "custom"
}