"WorldVertexTransition"
{
	"$baseTexture" "models/fallout_nv/landscape/NV_rocks/nv_rockformations_01_d"
	"$bumpmap"     "models/fallout_nv/landscape/NV_rocks/nv_rockformations_01_n"
	"$surfaceprop" 	"rock"
}