"LightmappedGeneric"
{
	"$baseTexture" "models/fallout_nv/architecture/yangtzewarmemorial/nv_yangtze_war-memorial02"
	"$bumpmap"     "models/fallout_nv/architecture/yangtzewarmemorial/nv_yangtze_war-memorial02_n"
	"$surfaceprop" 	"concrete"
	"%keywords" "custom"
}