"WorldVertexTransition"
{

	"$basetexture" "models/fallout_nv/landscape/rubblepile03"
	"$bumpmap" "models/fallout_nv/landscape/rubblepile03_n"
	"$surfaceprop" "concrete"

	"$basetexture2" "models/fallout_nv/landscape/dirtwasteland01"
	"$bumpmap2" "models/fallout_nv/landscape/dirtwasteland01_n"
	"$surfaceprop2" "dirt"
	
	"%keywords" "custom"
}