"VertexLitGeneric"
{
	"$baseTexture" "models/fallout/items/dirtywater/Dirtywatera"
	"$bumpmap" 	"models/fallout/items/dirtywater/Dirtywatera_n"
	"$translucent"    "1"
	"$envmap" "env_cubemap"
	"$envmaptint" "[0 0.2 0]"
}
